[gd_scene load_steps=5 format=3 uid="uid://i0ik47qhci7b"]

[sub_resource type="SegmentShape2D" id="SegmentShape2D_kln5n"]
b = Vector2(0, 480)

[sub_resource type="SegmentShape2D" id="SegmentShape2D_1ucfa"]
b = Vector2(640, 0)

[sub_resource type="SegmentShape2D" id="SegmentShape2D_6jfcw"]
a = Vector2(640, 0)
b = Vector2(640, 480)

[sub_resource type="SegmentShape2D" id="SegmentShape2D_xwpcw"]
a = Vector2(0, 480)
b = Vector2(640, 480)

[node name="Borders" type="Node2D"]

[node name="BorderRight" type="StaticBody2D" parent="."]
collision_layer = 8
collision_mask = 3

[node name="CollisionShape2D" type="CollisionShape2D" parent="BorderRight"]
shape = SubResource("SegmentShape2D_kln5n")

[node name="BorderTop" type="StaticBody2D" parent="."]
collision_layer = 8
collision_mask = 3

[node name="CollisionShape2D" type="CollisionShape2D" parent="BorderTop"]
shape = SubResource("SegmentShape2D_1ucfa")

[node name="BorderLeft" type="StaticBody2D" parent="."]
collision_layer = 8
collision_mask = 3

[node name="CollisionShape2D" type="CollisionShape2D" parent="BorderLeft"]
shape = SubResource("SegmentShape2D_6jfcw")

[node name="BorderBottom" type="StaticBody2D" parent="."]
collision_layer = 8
collision_mask = 3

[node name="CollisionShape2D" type="CollisionShape2D" parent="BorderBottom"]
shape = SubResource("SegmentShape2D_xwpcw")
