[gd_scene load_steps=2 format=3 uid="uid://br0s17xtxx7i4"]

[ext_resource type="Script" path="res://scenes/interaction/scene_change/scene_change_interaction.gd" id="1_awwwp"]

[node name="SceneChangeInteraction" type="Node"]
script = ExtResource("1_awwwp")
