[gd_resource type="Theme" load_steps=2 format=3 uid="uid://dfe4cflvu5t82"]

[ext_resource type="FontFile" uid="uid://btxd7eu7uem4l" path="res://QuinqueFive.ttf" id="1_g3ubc"]

[resource]
default_font = ExtResource("1_g3ubc")
default_font_size = 10
