[gd_scene load_steps=4 format=3 uid="uid://bpeglwa08khlb"]

[ext_resource type="PackedScene" uid="uid://i0ik47qhci7b" path="res://scenes/borders/Borders.tscn" id="1_4wxec"]
[ext_resource type="PackedScene" uid="uid://cnh3oqs0k5pm5" path="res://scenes/overworld/player/Player.tscn" id="2_jc16w"]
[ext_resource type="PackedScene" uid="uid://cxxqr4f1c4yqh" path="res://scenes/arena/exit_poi/ExitPoi.tscn" id="3_1tgjm"]

[node name="Arena" type="Node2D"]

[node name="Borders" parent="." instance=ExtResource("1_4wxec")]

[node name="Player" parent="." instance=ExtResource("2_jc16w")]
position = Vector2(320, 240)

[node name="ExitPoi" parent="." instance=ExtResource("3_1tgjm")]
position = Vector2(320, 400)
