[gd_scene load_steps=4 format=3 uid="uid://cxxqr4f1c4yqh"]

[ext_resource type="PackedScene" uid="uid://ev6utowoyyxb" path="res://scenes/point_of_interest/point_of_interest.tscn" id="1_jpgw1"]
[ext_resource type="PackedScene" uid="uid://br0s17xtxx7i4" path="res://scenes/interaction/scene_change/SceneChangeInteraction.tscn" id="2_7ct75"]

[sub_resource type="RectangleShape2D" id="RectangleShape2D_eisvc"]
size = Vector2(640, 160)

[node name="ExitPoi" type="Node2D"]

[node name="PointOfInterest" parent="." node_paths=PackedStringArray("interaction") instance=ExtResource("1_jpgw1")]
msg = "Exit to map"
interaction = NodePath("SceneChangeInteraction")

[node name="CollisionShape2D" type="CollisionShape2D" parent="PointOfInterest"]
shape = SubResource("RectangleShape2D_eisvc")

[node name="SceneChangeInteraction" parent="PointOfInterest" instance=ExtResource("2_7ct75")]
is_on_overworld = false
scene_path = "res://scenes/overworld/Overworld.tscn"
